Counterplz/simulation/qsim/Contador.msim.vcd
$comment
	File created using the following command:
		vcd file Contador.msim.vcd -direction
$end
$date
	Mon Dec 03 18:02:55 2018
$end
$version
	ModelSim Version 10.1d
$end
$timescale
	1ps
$end
$scope module Contador_vlg_vec_tst $end
$var reg 1 ! clk_cpu $end
$var reg 1 " rst_cpu $end
$var reg 1 # start_cpu $end
$var wire 1 $ a $end
$var wire 1 % b $end
$var wire 1 & c $end
$var wire 1 ' d $end
$var wire 1 ( e $end
$var wire 1 ) f $end
$var wire 1 * g $end
$var wire 1 + hex0 [6] $end
$var wire 1 , hex0 [5] $end
$var wire 1 - hex0 [4] $end
$var wire 1 . hex0 [3] $end
$var wire 1 / hex0 [2] $end
$var wire 1 0 hex0 [1] $end
$var wire 1 1 hex0 [0] $end
$var wire 1 2 hex1 [6] $end
$var wire 1 3 hex1 [5] $end
$var wire 1 4 hex1 [4] $end
$var wire 1 5 hex1 [3] $end
$var wire 1 6 hex1 [2] $end
$var wire 1 7 hex1 [1] $end
$var wire 1 8 hex1 [0] $end
$var wire 1 9 hex2 [6] $end
$var wire 1 : hex2 [5] $end
$var wire 1 ; hex2 [4] $end
$var wire 1 < hex2 [3] $end
$var wire 1 = hex2 [2] $end
$var wire 1 > hex2 [1] $end
$var wire 1 ? hex2 [0] $end
$var wire 1 @ hex3 [6] $end
$var wire 1 A hex3 [5] $end
$var wire 1 B hex3 [4] $end
$var wire 1 C hex3 [3] $end
$var wire 1 D hex3 [2] $end
$var wire 1 E hex3 [1] $end
$var wire 1 F hex3 [0] $end
$var wire 1 G IRds [7] $end
$var wire 1 H IRds [6] $end
$var wire 1 I IRds [5] $end
$var wire 1 J IRds [4] $end
$var wire 1 K IRds [3] $end
$var wire 1 L IRds [2] $end
$var wire 1 M IRds [1] $end
$var wire 1 N IRds [0] $end
$var wire 1 O output_cpu [3] $end
$var wire 1 P output_cpu [2] $end
$var wire 1 Q output_cpu [1] $end
$var wire 1 R output_cpu [0] $end
$var wire 1 S sampler $end
$scope module i1 $end
$var wire 1 T gnd $end
$var wire 1 U vcc $end
$var wire 1 V unknown $end
$var tri1 1 W devclrn $end
$var tri1 1 X devpor $end
$var tri1 1 Y devoe $end
$var wire 1 Z controller|Add0~2_combout $end
$var wire 1 [ controller|state.s10~regout $end
$var wire 1 \ controller|Selector42~0_combout $end
$var wire 1 ] controller|state.s8~regout $end
$var wire 1 ^ controller|state.s9~regout $end
$var wire 1 _ controller|Selector41~0_combout $end
$var wire 1 ` controller|state.s5~regout $end
$var wire 1 a controller|Selector43~0_combout $end
$var wire 1 b controller|state.s12~regout $end
$var wire 1 c controller|Mux5~4_combout $end
$var wire 1 d controller|state~23_combout $end
$var wire 1 e controller|Mux5~5_combout $end
$var wire 1 f controller|state~24_combout $end
$var wire 1 g controller|Mux5~6_combout $end
$var wire 1 h controller|state~25_combout $end
$var wire 1 i controller|Mux5~7_combout $end
$var wire 1 j controller|state~26_combout $end
$var wire 1 k controller|Mux5~8_combout $end
$var wire 1 l controller|state~27_combout $end
$var wire 1 m datapath|alu1|soma|comb~98_combout $end
$var wire 1 n datapath|alu1|subtracao|comb~1_combout $end
$var wire 1 o controller|state.s4~regout $end
$var wire 1 p controller|Selector38~1_combout $end
$var wire 1 q datapath|alu1|soma|comb~101_combout $end
$var wire 1 r datapath|alu1|soma|r[2]~1_combout $end
$var wire 1 s datapath|alu1|soma|r[3]~2_combout $end
$var wire 1 t controller|Mux0~0_combout $end
$var wire 1 u controller|Selector35~0_combout $end
$var wire 1 v datapath|alu1|soma|n2[1]~0_combout $end
$var wire 1 w datapath|alu1|soma|n2[2]~1_combout $end
$var wire 1 x controller|Mux5~9_combout $end
$var wire 1 y controller|state~28_combout $end
$var wire 1 z datapath|rf1|Mux18~0_combout $end
$var wire 1 { datapath|rf1|Mux18~1_combout $end
$var wire 1 | datapath|alu1|soma|comb~105_combout $end
$var wire 1 } datapath|alu1|soma|comb~106_combout $end
$var wire 1 ~ datapath|rf_input[1]~feeder_combout $end
$var wire 1 !! datapath|rf1|out3[0]~feeder_combout $end
$var wire 1 "! datapath|rf1|out1[1]~feeder_combout $end
$var wire 1 #! datapath|rf1|out3[1]~feeder_combout $end
$var wire 1 $! datapath|rf1|out2[1]~feeder_combout $end
$var wire 1 %! datapath|rf1|out3[2]~feeder_combout $end
$var wire 1 &! clk_cpu~combout $end
$var wire 1 '! clk_cpu~clkctrl_outclk $end
$var wire 1 (! start_cpu~combout $end
$var wire 1 )! controller|state.s0~0_combout $end
$var wire 1 *! rst_cpu~combout $end
$var wire 1 +! rst_cpu~clkctrl_outclk $end
$var wire 1 ,! controller|state.s0~regout $end
$var wire 1 -! controller|Selector36~0_combout $end
$var wire 1 .! controller|WideOr7~0_combout $end
$var wire 1 /! controller|Selector36~1_combout $end
$var wire 1 0! controller|state.s1~regout $end
$var wire 1 1! controller|state.s2~regout $end
$var wire 1 2! controller|state.s3~regout $end
$var wire 1 3! controller|OPCODE[2]~0_combout $end
$var wire 1 4! controller|Add0~0_combout $end
$var wire 1 5! controller|ADDRESS[0]~feeder_combout $end
$var wire 1 6! controller|Selector31~0_combout $end
$var wire 1 7! controller|Selector31~1_combout $end
$var wire 1 8! controller|Mux2~0_combout $end
$var wire 1 9! controller|OPCODE[0]~feeder_combout $end
$var wire 1 :! controller|Mux5~0_combout $end
$var wire 1 ;! controller|state~19_combout $end
$var wire 1 <! controller|state.s11~regout $end
$var wire 1 =! controller|Mux4~0_combout $end
$var wire 1 >! controller|Selector30~0_combout $end
$var wire 1 ?! controller|PC[1]~2_combout $end
$var wire 1 @! controller|Add0~1 $end
$var wire 1 A! controller|Add0~3 $end
$var wire 1 B! controller|Add0~4_combout $end
$var wire 1 C! controller|Mux3~0_combout $end
$var wire 1 D! controller|Selector29~0_combout $end
$var wire 1 E! controller|Mux1~0_combout $end
$var wire 1 F! controller|state.done~0_combout $end
$var wire 1 G! controller|state.done~1_combout $end
$var wire 1 H! controller|state.done~regout $end
$var wire 1 I! controller|WideOr7~1_combout $end
$var wire 1 J! controller|Mux5~1_combout $end
$var wire 1 K! controller|state~20_combout $end
$var wire 1 L! controller|state.s13~regout $end
$var wire 1 M! controller|Selector41~1_combout $end
$var wire 1 N! controller|Selector40~0_combout $end
$var wire 1 O! datapath|input_a_alu[0]~0_combout $end
$var wire 1 P! controller|Mux5~2_combout $end
$var wire 1 Q! controller|state~21_combout $end
$var wire 1 R! controller|state.s6~regout $end
$var wire 1 S! controller|rf_sel_ctrl[1]~0_combout $end
$var wire 1 T! controller|rf_sel_ctrl[1]~1_combout $end
$var wire 1 U! controller|Selector42~1_combout $end
$var wire 1 V! datapath|rf_input[0]~0_combout $end
$var wire 1 W! datapath|rf_input[0]~1_combout $end
$var wire 1 X! controller|Selector39~0_combout $end
$var wire 1 Y! controller|rf_enb_ctrl~regout $end
$var wire 1 Z! datapath|rf1|Mux11~0_combout $end
$var wire 1 [! datapath|rf1|out0[0]~0_combout $end
$var wire 1 \! datapath|rf1|out1[0]~feeder_combout $end
$var wire 1 ]! datapath|rf1|Mux11~1_combout $end
$var wire 1 ^! datapath|rf1|Mux19~0_combout $end
$var wire 1 _! datapath|rf1|Mux19~1_combout $end
$var wire 1 `! datapath|Mux15~0_combout $end
$var wire 1 a! datapath|input_a_alu[0]~1_combout $end
$var wire 1 b! datapath|input_a_alu[0]~2_combout $end
$var wire 1 c! controller|Selector43~1_combout $end
$var wire 1 d! datapath|alu1|output_alu[0]~0_combout $end
$var wire 1 e! datapath|alu1|output_alu[0]~4_combout $end
$var wire 1 f! controller|Selector32~0_combout $end
$var wire 1 g! datapath|input_b_alu[3]~0_combout $end
$var wire 1 h! datapath|Mux0~0_combout $end
$var wire 1 i! datapath|acc_input[0]~0_combout $end
$var wire 1 j! datapath|acc_input[0]~1_combout $end
$var wire 1 k! controller|Selector34~0_combout $end
$var wire 1 l! datapath|Mux2~0_combout $end
$var wire 1 m! datapath|alu1|soma|comb~110_combout $end
$var wire 1 n! datapath|alu1|soma|comb~108_combout $end
$var wire 1 o! datapath|alu1|subtracao|r[2]~1_combout $end
$var wire 1 p! datapath|alu1|soma|comb~104_combout $end
$var wire 1 q! datapath|alu1|soma|n1[1]~0_combout $end
$var wire 1 r! datapath|Mux3~0_combout $end
$var wire 1 s! datapath|alu1|soma|comb~102_combout $end
$var wire 1 t! datapath|alu1|subtracao|res[0]~1 $end
$var wire 1 u! datapath|alu1|subtracao|res[1]~2_combout $end
$var wire 1 v! datapath|alu1|subtracao|comb~3_combout $end
$var wire 1 w! datapath|alu1|output_alu[0]~1_combout $end
$var wire 1 x! datapath|alu1|output_alu[0]~2_combout $end
$var wire 1 y! datapath|alu1|output_alu[0]~3_combout $end
$var wire 1 z! datapath|alu1|Mux1~0_combout $end
$var wire 1 {! datapath|alu1|Mux1~1_combout $end
$var wire 1 |! datapath|alu1|Mux1~2_combout $end
$var wire 1 }! datapath|alu1|Mux1~3_combout $end
$var wire 1 ~! datapath|alu1|output_alu[0]~5_combout $end
$var wire 1 !" datapath|rf_input[2]~feeder_combout $end
$var wire 1 "" datapath|rf1|out1[2]~feeder_combout $end
$var wire 1 #" datapath|rf1|Mux17~0_combout $end
$var wire 1 $" datapath|rf1|Mux17~1_combout $end
$var wire 1 %" controller|Selector33~0_combout $end
$var wire 1 &" datapath|Mux1~0_combout $end
$var wire 1 '" datapath|alu1|soma|n1[2]~1_combout $end
$var wire 1 (" datapath|alu1|subtracao|res[1]~3 $end
$var wire 1 )" datapath|alu1|subtracao|res[2]~4_combout $end
$var wire 1 *" datapath|alu1|subtracao|r[3]~2_combout $end
$var wire 1 +" datapath|alu1|Mux0~0_combout $end
$var wire 1 ," datapath|alu1|Mux0~1_combout $end
$var wire 1 -" datapath|alu1|Mux0~2_combout $end
$var wire 1 ." datapath|alu1|Mux0~3_combout $end
$var wire 1 /" datapath|rf_input[3]~feeder_combout $end
$var wire 1 0" datapath|rf1|Mux11~2_combout $end
$var wire 1 1" datapath|rf1|out2[3]~feeder_combout $end
$var wire 1 2" datapath|rf1|Mux16~0_combout $end
$var wire 1 3" datapath|rf1|Mux16~1_combout $end
$var wire 1 4" datapath|Mux12~0_combout $end
$var wire 1 5" datapath|alu1|subtracao|r[1]~0_combout $end
$var wire 1 6" datapath|alu1|subtracao|comb~2_combout $end
$var wire 1 7" datapath|acumulador|output_acc[2]~feeder_combout $end
$var wire 1 8" controller|Mux5~3_combout $end
$var wire 1 9" controller|state~22_combout $end
$var wire 1 :" controller|state.s7~regout $end
$var wire 1 ;" controller|Selector38~0_combout $end
$var wire 1 <" controller|Selector38~2_combout $end
$var wire 1 =" controller|acc_enb_ctrl~regout $end
$var wire 1 >" datapath|Mux13~0_combout $end
$var wire 1 ?" datapath|alu1|soma|comb~107_combout $end
$var wire 1 @" datapath|alu1|soma|comb~103_combout $end
$var wire 1 A" datapath|alu1|soma|res[0]~1 $end
$var wire 1 B" datapath|alu1|soma|res[1]~2_combout $end
$var wire 1 C" datapath|alu1|soma|comb~109_combout $end
$var wire 1 D" datapath|alu1|soma|res[1]~3 $end
$var wire 1 E" datapath|alu1|soma|res[2]~4_combout $end
$var wire 1 F" datapath|alu1|soma|res[2]~5 $end
$var wire 1 G" datapath|alu1|soma|res[3]~6_combout $end
$var wire 1 H" datapath|alu1|soma|comb~100_combout $end
$var wire 1 I" datapath|alu1|soma|r[1]~0_combout $end
$var wire 1 J" datapath|alu1|Mux2~0_combout $end
$var wire 1 K" datapath|alu1|Mux2~1_combout $end
$var wire 1 L" datapath|alu1|Mux2~2_combout $end
$var wire 1 M" datapath|alu1|Mux2~3_combout $end
$var wire 1 N" datapath|acumulador|output_acc[1]~feeder_combout $end
$var wire 1 O" datapath|Mux14~0_combout $end
$var wire 1 P" datapath|alu1|soma|comb~111_combout $end
$var wire 1 Q" datapath|alu1|subtracao|res[2]~5 $end
$var wire 1 R" datapath|alu1|subtracao|res[3]~6_combout $end
$var wire 1 S" datapath|alu1|subtracao|res[0]~0_combout $end
$var wire 1 T" datapath|alu1|subtracao|comb~0_combout $end
$var wire 1 U" datapath|alu1|soma|res[0]~0_combout $end
$var wire 1 V" datapath|alu1|soma|comb~99_combout $end
$var wire 1 W" datapath|alu1|Mux3~0_combout $end
$var wire 1 X" datapath|alu1|Mux3~1_combout $end
$var wire 1 Y" datapath|alu1|Mux3~2_combout $end
$var wire 1 Z" datapath|alu1|Mux3~3_combout $end
$var wire 1 [" datapath|acumulador|output_acc[0]~feeder_combout $end
$var wire 1 \" datapath|output_dp[0]~0_combout $end
$var wire 1 ]" datapath|Mux11~0_combout $end
$var wire 1 ^" output_cpu[0]~reg0feeder_combout $end
$var wire 1 _" output_cpu[0]~reg0_regout $end
$var wire 1 `" datapath|Mux10~0_combout $end
$var wire 1 a" output_cpu[1]~reg0_regout $end
$var wire 1 b" datapath|Mux9~0_combout $end
$var wire 1 c" output_cpu[2]~reg0feeder_combout $end
$var wire 1 d" output_cpu[2]~reg0_regout $end
$var wire 1 e" datapath|acumulador|output_acc[3]~feeder_combout $end
$var wire 1 f" datapath|Mux8~0_combout $end
$var wire 1 g" output_cpu[3]~reg0_regout $end
$var wire 1 h" Mux0~0_combout $end
$var wire 1 i" a~reg0_regout $end
$var wire 1 j" Mux1~0_combout $end
$var wire 1 k" b~reg0_regout $end
$var wire 1 l" Mux2~0_combout $end
$var wire 1 m" c~reg0_regout $end
$var wire 1 n" Mux3~0_combout $end
$var wire 1 o" d~reg0_regout $end
$var wire 1 p" Mux4~0_combout $end
$var wire 1 q" e~reg0_regout $end
$var wire 1 r" Mux5~0_combout $end
$var wire 1 s" f~reg0_regout $end
$var wire 1 t" Mux6~0_combout $end
$var wire 1 u" g~reg0_regout $end
$var wire 1 v" controller|irs~0_combout $end
$var wire 1 w" controller|irs[0]~feeder_combout $end
$var wire 1 x" controller|irs~1_combout $end
$var wire 1 y" controller|irs~2_combout $end
$var wire 1 z" controller|irs[2]~feeder_combout $end
$var wire 1 {" controller|irs~3_combout $end
$var wire 1 |" controller|irs~4_combout $end
$var wire 1 }" controller|irs[4]~feeder_combout $end
$var wire 1 ~" controller|irs~5_combout $end
$var wire 1 !# controller|irs[5]~feeder_combout $end
$var wire 1 "# controller|irs~6_combout $end
$var wire 1 ## bcd7seg_com|Mux6~0_combout $end
$var wire 1 $# bcd7seg_com|Mux6~0clkctrl_outclk $end
$var wire 1 %# bcd7seg_com|Mux3~0_combout $end
$var wire 1 &# bcd7seg_com|Mux1~0_combout $end
$var wire 1 '# bcd7seg_com|Mux0~0_combout $end
$var wire 1 (# datapath|input_a_alu [3] $end
$var wire 1 )# datapath|input_a_alu [2] $end
$var wire 1 *# datapath|input_a_alu [1] $end
$var wire 1 +# datapath|input_a_alu [0] $end
$var wire 1 ,# bcd7seg_com|hex1 [6] $end
$var wire 1 -# bcd7seg_com|hex1 [5] $end
$var wire 1 .# bcd7seg_com|hex1 [4] $end
$var wire 1 /# bcd7seg_com|hex1 [3] $end
$var wire 1 0# bcd7seg_com|hex1 [2] $end
$var wire 1 1# bcd7seg_com|hex1 [1] $end
$var wire 1 2# bcd7seg_com|hex1 [0] $end
$var wire 1 3# datapath|alu1|subtracao|n2 [3] $end
$var wire 1 4# datapath|alu1|subtracao|n2 [2] $end
$var wire 1 5# datapath|alu1|subtracao|n2 [1] $end
$var wire 1 6# datapath|alu1|subtracao|n2 [0] $end
$var wire 1 7# datapath|acc_input [3] $end
$var wire 1 8# datapath|acc_input [2] $end
$var wire 1 9# datapath|acc_input [1] $end
$var wire 1 :# datapath|acc_input [0] $end
$var wire 1 ;# controller|alu_sct_ctrl [3] $end
$var wire 1 <# controller|alu_sct_ctrl [2] $end
$var wire 1 =# controller|alu_sct_ctrl [1] $end
$var wire 1 ># controller|alu_sct_ctrl [0] $end
$var wire 1 ?# controller|PC [31] $end
$var wire 1 @# controller|PC [30] $end
$var wire 1 A# controller|PC [29] $end
$var wire 1 B# controller|PC [28] $end
$var wire 1 C# controller|PC [27] $end
$var wire 1 D# controller|PC [26] $end
$var wire 1 E# controller|PC [25] $end
$var wire 1 F# controller|PC [24] $end
$var wire 1 G# controller|PC [23] $end
$var wire 1 H# controller|PC [22] $end
$var wire 1 I# controller|PC [21] $end
$var wire 1 J# controller|PC [20] $end
$var wire 1 K# controller|PC [19] $end
$var wire 1 L# controller|PC [18] $end
$var wire 1 M# controller|PC [17] $end
$var wire 1 N# controller|PC [16] $end
$var wire 1 O# controller|PC [15] $end
$var wire 1 P# controller|PC [14] $end
$var wire 1 Q# controller|PC [13] $end
$var wire 1 R# controller|PC [12] $end
$var wire 1 S# controller|PC [11] $end
$var wire 1 T# controller|PC [10] $end
$var wire 1 U# controller|PC [9] $end
$var wire 1 V# controller|PC [8] $end
$var wire 1 W# controller|PC [7] $end
$var wire 1 X# controller|PC [6] $end
$var wire 1 Y# controller|PC [5] $end
$var wire 1 Z# controller|PC [4] $end
$var wire 1 [# controller|PC [3] $end
$var wire 1 \# controller|PC [2] $end
$var wire 1 ]# controller|PC [1] $end
$var wire 1 ^# controller|PC [0] $end
$var wire 1 _# datapath|alu1|output_alu [3] $end
$var wire 1 `# datapath|alu1|output_alu [2] $end
$var wire 1 a# datapath|alu1|output_alu [1] $end
$var wire 1 b# datapath|alu1|output_alu [0] $end
$var wire 1 c# datapath|output_dp [3] $end
$var wire 1 d# datapath|output_dp [2] $end
$var wire 1 e# datapath|output_dp [1] $end
$var wire 1 f# datapath|output_dp [0] $end
$var wire 1 g# controller|rf_sel_ctrl [1] $end
$var wire 1 h# controller|rf_sel_ctrl [0] $end
$var wire 1 i# datapath|rf1|out3 [3] $end
$var wire 1 j# datapath|rf1|out3 [2] $end
$var wire 1 k# datapath|rf1|out3 [1] $end
$var wire 1 l# datapath|rf1|out3 [0] $end
$var wire 1 m# datapath|alu1|subtracao|n1 [3] $end
$var wire 1 n# datapath|alu1|subtracao|n1 [2] $end
$var wire 1 o# datapath|alu1|subtracao|n1 [1] $end
$var wire 1 p# datapath|alu1|subtracao|n1 [0] $end
$var wire 1 q# datapath|alu1|soma|n1 [3] $end
$var wire 1 r# datapath|alu1|soma|n1 [2] $end
$var wire 1 s# datapath|alu1|soma|n1 [1] $end
$var wire 1 t# datapath|alu1|soma|n1 [0] $end
$var wire 1 u# datapath|rf1|output_rf [3] $end
$var wire 1 v# datapath|rf1|output_rf [2] $end
$var wire 1 w# datapath|rf1|output_rf [1] $end
$var wire 1 x# datapath|rf1|output_rf [0] $end
$var wire 1 y# controller|imm [3] $end
$var wire 1 z# controller|imm [2] $end
$var wire 1 {# controller|imm [1] $end
$var wire 1 |# controller|imm [0] $end
$var wire 1 }# datapath|acumulador|output_acc [3] $end
$var wire 1 ~# datapath|acumulador|output_acc [2] $end
$var wire 1 !$ datapath|acumulador|output_acc [1] $end
$var wire 1 "$ datapath|acumulador|output_acc [0] $end
$var wire 1 #$ controller|ADDRESS [3] $end
$var wire 1 $$ controller|ADDRESS [2] $end
$var wire 1 %$ controller|ADDRESS [1] $end
$var wire 1 &$ controller|ADDRESS [0] $end
$var wire 1 '$ bcd7seg_com|hex2 [6] $end
$var wire 1 ($ bcd7seg_com|hex2 [5] $end
$var wire 1 )$ bcd7seg_com|hex2 [4] $end
$var wire 1 *$ bcd7seg_com|hex2 [3] $end
$var wire 1 +$ bcd7seg_com|hex2 [2] $end
$var wire 1 ,$ bcd7seg_com|hex2 [1] $end
$var wire 1 -$ bcd7seg_com|hex2 [0] $end
$var wire 1 .$ datapath|alu1|subtracao|r [3] $end
$var wire 1 /$ datapath|alu1|subtracao|r [2] $end
$var wire 1 0$ datapath|alu1|subtracao|r [1] $end
$var wire 1 1$ datapath|alu1|subtracao|r [0] $end
$var wire 1 2$ datapath|alu1|soma|r [3] $end
$var wire 1 3$ datapath|alu1|soma|r [2] $end
$var wire 1 4$ datapath|alu1|soma|r [1] $end
$var wire 1 5$ datapath|alu1|soma|r [0] $end
$var wire 1 6$ controller|irs [7] $end
$var wire 1 7$ controller|irs [6] $end
$var wire 1 8$ controller|irs [5] $end
$var wire 1 9$ controller|irs [4] $end
$var wire 1 :$ controller|irs [3] $end
$var wire 1 ;$ controller|irs [2] $end
$var wire 1 <$ controller|irs [1] $end
$var wire 1 =$ controller|irs [0] $end
$var wire 1 >$ bcd7seg_com|hex3 [6] $end
$var wire 1 ?$ bcd7seg_com|hex3 [5] $end
$var wire 1 @$ bcd7seg_com|hex3 [4] $end
$var wire 1 A$ bcd7seg_com|hex3 [3] $end
$var wire 1 B$ bcd7seg_com|hex3 [2] $end
$var wire 1 C$ bcd7seg_com|hex3 [1] $end
$var wire 1 D$ bcd7seg_com|hex3 [0] $end
$var wire 1 E$ datapath|rf1|out0 [3] $end
$var wire 1 F$ datapath|rf1|out0 [2] $end
$var wire 1 G$ datapath|rf1|out0 [1] $end
$var wire 1 H$ datapath|rf1|out0 [0] $end
$var wire 1 I$ datapath|alu1|soma|n2 [3] $end
$var wire 1 J$ datapath|alu1|soma|n2 [2] $end
$var wire 1 K$ datapath|alu1|soma|n2 [1] $end
$var wire 1 L$ datapath|alu1|soma|n2 [0] $end
$var wire 1 M$ bcd7seg_com|hex0 [6] $end
$var wire 1 N$ bcd7seg_com|hex0 [5] $end
$var wire 1 O$ bcd7seg_com|hex0 [4] $end
$var wire 1 P$ bcd7seg_com|hex0 [3] $end
$var wire 1 Q$ bcd7seg_com|hex0 [2] $end
$var wire 1 R$ bcd7seg_com|hex0 [1] $end
$var wire 1 S$ bcd7seg_com|hex0 [0] $end
$var wire 1 T$ controller|IR [7] $end
$var wire 1 U$ controller|IR [6] $end
$var wire 1 V$ controller|IR [5] $end
$var wire 1 W$ controller|IR [4] $end
$var wire 1 X$ controller|IR [3] $end
$var wire 1 Y$ controller|IR [2] $end
$var wire 1 Z$ controller|IR [1] $end
$var wire 1 [$ controller|IR [0] $end
$var wire 1 \$ datapath|rf1|out1 [3] $end
$var wire 1 ]$ datapath|rf1|out1 [2] $end
$var wire 1 ^$ datapath|rf1|out1 [1] $end
$var wire 1 _$ datapath|rf1|out1 [0] $end
$var wire 1 `$ datapath|rf1|out2 [3] $end
$var wire 1 a$ datapath|rf1|out2 [2] $end
$var wire 1 b$ datapath|rf1|out2 [1] $end
$var wire 1 c$ datapath|rf1|out2 [0] $end
$var wire 1 d$ controller|OPCODE [3] $end
$var wire 1 e$ controller|OPCODE [2] $end
$var wire 1 f$ controller|OPCODE [1] $end
$var wire 1 g$ controller|OPCODE [0] $end
$var wire 1 h$ datapath|input_b_alu [3] $end
$var wire 1 i$ datapath|input_b_alu [2] $end
$var wire 1 j$ datapath|input_b_alu [1] $end
$var wire 1 k$ datapath|input_b_alu [0] $end
$var wire 1 l$ datapath|rf_input [3] $end
$var wire 1 m$ datapath|rf_input [2] $end
$var wire 1 n$ datapath|rf_input [1] $end
$var wire 1 o$ datapath|rf_input [0] $end
$upscope $end
$upscope $end
$enddefinitions $end
#0
$dumpvars
0!
0"
1#
0$
0%
0&
0'
0(
0)
1*
11
00
0/
0.
0-
0,
0+
18
07
06
05
04
03
02
1?
0>
0=
0<
0;
0:
09
1F
0E
0D
0C
0B
0A
0@
0N
0M
0L
0K
0J
0I
0H
0G
0R
0Q
0P
0O
xS
0T
1U
xV
1W
1X
1Y
1Z
0[
0\
0]
0^
0_
0`
0a
0b
0c
0d
0e
0f
0g
0h
0i
0j
0k
0l
1m
0n
0o
0p
1q
0r
0s
0t
0u
0v
0w
1x
0y
0z
0{
1|
0}
0~
0!!
0"!
0#!
0$!
0%!
0&!
0'!
1(!
1)!
0*!
0+!
0,!
1-!
0.!
1/!
00!
01!
02!
03!
04!
05!
06!
17!
18!
19!
0:!
0;!
0<!
0=!
0>!
1?!
1@!
1A!
0B!
0C!
0D!
0E!
0F!
0G!
0H!
0I!
0J!
0K!
0L!
0M!
0N!
0O!
0P!
0Q!
0R!
0S!
0T!
0U!
1V!
0W!
0X!
0Y!
0Z!
1[!
0\!
0]!
0^!
0_!
0`!
1a!
0b!
0c!
0d!
1e!
0f!
1g!
0h!
0i!
1j!
0k!
0l!
0m!
1n!
0o!
1p!
0q!
0r!
1s!
1t!
0u!
1v!
1w!
1x!
1y!
0z!
0{!
0|!
0}!
1~!
0!"
0""
0#"
0$"
0%"
0&"
0'"
0("
0)"
0*"
0+"
0,"
0-"
0."
0/"
00"
01"
02"
03"
04"
05"
16"
07"
08"
09"
0:"
0;"
0<"
0="
0>"
0?"
1@"
0A"
0B"
1C"
1D"
0E"
0F"
0G"
1H"
0I"
0J"
0K"
0L"
0M"
0N"
0O"
0P"
1Q"
0R"
0S"
1T"
0U"
0V"
0W"
0X"
0Y"
0Z"
0["
1\"
0]"
0^"
0_"
0`"
0a"
0b"
0c"
0d"
0e"
0f"
0g"
0h"
0i"
0j"
0k"
0l"
0m"
0n"
0o"
0p"
0q"
0r"
0s"
0t"
0u"
0v"
0w"
0x"
0y"
0z"
0{"
0|"
0}"
0~"
0!#
0"#
0##
0$#
0%#
0&#
0'#
0+#
0*#
0)#
0(#
z2#
01#
z0#
z/#
z.#
z-#
z,#
06#
05#
04#
03#
0:#
09#
08#
07#
0>#
0=#
0<#
0;#
0^#
0]#
0\#
z[#
zZ#
zY#
zX#
zW#
zV#
zU#
zT#
zS#
zR#
zQ#
zP#
zO#
zN#
zM#
zL#
zK#
zJ#
zI#
zH#
zG#
zF#
zE#
zD#
zC#
zB#
zA#
z@#
z?#
0b#
0a#
0`#
0_#
0f#
0e#
0d#
0c#
0h#
0g#
0l#
0k#
0j#
0i#
0p#
0o#
0n#
0m#
0t#
0s#
0r#
0q#
0x#
0w#
0v#
0u#
0|#
0{#
0z#
0y#
0"$
0!$
0~#
0}#
0&$
0%$
0$$
0#$
z-$
0,$
z+$
z*$
z)$
z($
z'$
01$
00$
0/$
0.$
05$
04$
03$
02$
0=$
0<$
0;$
0:$
09$
08$
07$
06$
1D$
0C$
zB$
zA$
z@$
z?$
z>$
0H$
0G$
0F$
0E$
0L$
0K$
0J$
0I$
zS$
0R$
zQ$
zP$
zO$
zN$
zM$
0[$
0Z$
0Y$
zX$
0W$
0V$
0U$
0T$
0_$
0^$
0]$
0\$
0c$
0b$
0a$
0`$
0g$
0f$
0e$
zd$
0k$
0j$
0i$
0h$
0o$
0n$
0m$
0l$
$end
#1000
1!
1&!
1'!
0S
1^#
10!
1,!
1~"
1x"
1v"
1E!
1=!
08!
15!
0@!
14!
1|"
13!
0?!
0-!
1!#
1w"
0|"
09!
0Z
1}"
0/!
0}"
#2000
0!
0&!
0'!
1S
#3000
1!
1&!
1'!
0S
18$
1V$
1<$
1Z$
1=$
1[$
1f$
1%$
1&$
11!
00!
1P!
0x
1?!
07!
03!
1I
1M
1N
#4000
0!
0&!
0'!
1S
#5000
1!
1&!
1'!
0S
0^#
12!
01!
0E!
0=!
18!
16!
05!
1@!
04!
1Q!
0?!
17!
19!
07!
1Z
#6000
0!
0&!
0'!
1S
#7000
1!
1&!
1'!
0S
1R!
02!
1;"
1k!
1S!
1u
1\
0Q!
1.!
1<"
1U!
1I!
1/!
#8000
0!
0&!
0'!
1S
#9000
1!
1&!
1'!
0S
1=#
1="
1{#
0R!
10!
1|#
1&#
0g!
1W!
1O!
0;"
0S!
0\
0~"
1|"
0x"
0v"
13!
0.!
11#
1r!
1l!
0<"
0U!
0!#
1}"
0w"
0I!
0/!
1<"
1U!
12
15
16
17
#10000
0!
0&!
0'!
1S
#11000
1!
1&!
1'!
0S
08$
0V$
19$
1W$
0<$
0Z$
0=$
0[$
1k$
1j$
0f$
0%$
1g$
0&$
11!
00!
1W"
0s!
1}
1J"
1q!
0p!
0P!
1i
1>!
1?!
17!
03!
0I
1J
0M
0N
1X"
1p#
1t#
1K"
1s#
1o#
1Y"
1S"
1U"
1L"
1B"
1u!
1Z"
0T"
1n
1V"
0m
1M"
1I"
0H"
1s
06"
15"
1*"
11$
15$
14$
10$
#12000
0!
0&!
0'!
1S
#13000
1!
1&!
1'!
0S
1b#
1a#
1]#
1^#
12!
01!
1]"
1`"
1~
1C!
08!
0A!
0Z
1E!
06!
15!
0@!
14!
1j
0?!
0>!
07!
09!
1B!
17!
1A!
1Z
0B!
#14000
0!
0&!
0'!
1S
#15000
1!
1&!
1'!
0S
1e#
1f#
1:#
19#
1o$
02!
1n$
1`
1t"
1r"
1p"
1^"
1["
1N"
1\!
1!!
1.!
0j
1$!
1#!
1"!
1;"
1X!
1a
1T!
1I!
1/!
1c!
0U!
#16000
0!
0&!
0'!
1S
#17000
1!
1&!
1'!
0S
0=#
1u"
1s"
1q"
1a"
1_"
1"$
1!$
1>#
1H$
1Y!
10!
1G$
0`
0&#
0y!
0x!
1i!
1g!
0a!
0W!
0O!
1`!
1O"
1'#
0V!
1^!
0[!
0X!
1~"
0|"
1y"
1v"
13!
0.!
1z
0;"
0a
1)
1(
1Q
1R
0*
01#
0W"
0J"
0j!
0r!
0l!
1b!
0O"
0`!
1R$
1_!
1!#
0}"
1z"
1w"
1X!
0T!
0I!
0/!
1{
0<"
0c!
0X"
0K"
1<"
1c!
02
05
06
07
1+
1.
1/
10
0Y"
0L"
0Z"
0M"
#18000
0!
0&!
0'!
1S
#19000
1!
1&!
1'!
0S
18$
1V$
09$
0W$
1;$
1Y$
1=$
1[$
0b#
0a#
1x#
1f$
1$$
0g$
1&$
11!
00!
1w#
0]"
0`"
0~
1r!
1`!
1P!
0i
1?!
1>!
07!
03!
1O"
1l!
1I
0J
1L
1N
#20000
0!
0&!
0'!
1S
